Top 10 Netflix Films/Shows – STA 9750 Submission Material
…
show/hide code

Top_English_TV <- GLOBAL_TOP_10 %>%
  filter(category == "TV (English)") %>%
  group_by(show_title) %>%
  summarise(
    Total_Hours = sum(weekly_hours_viewed, na.rm = TRUE),
    Total_Weeks = n_distinct(week),
    .groups = "drop"
  ) %>%
  arrange(desc(Total_Hours))

print(Top_English_TV)

# A tibble: 515 × 3
   show_title      Total_Hours Total_Weeks
   <chr>                 <dbl>       <int>
 1 Stranger Things  2967980000          20
 2 Wednesday        2876350000          29
 3 Bridgerton       2279710000          26
 4 Ginny & Georgia  1556880000          13
 5 You              1542990000          20
 6 Manifest         1320520000          29
 7 Love Is Blind    1311300000          37
 8 The Night Agent  1307720000          18
 9 Outer Banks      1275610000          20
10 Virgin River     1135110000          24
# ℹ 505 more rows
…
