mp03.qmd – STA 9750 Submission Material
…
dead_by_district

Simple feature collection with 52 features and 4 fields
Geometry type: MULTIPOINT
Dimension:     XY
Bounding box:  xmin: -74.25499 ymin: 40.49668 xmax: -73.69808 ymax: 40.91419
Geodetic CRS:  WGS 84
# A tibble: 52 × 5
   CounDist total  dead frac_dead                                       geometry
      <int> <int> <int>     <dbl>                               <MULTIPOINT [°]>
 1       32 30292  4316     0.142 ((-73.87193 40.57096), (-73.87198 40.57101), …
 2       30 23013  3231     0.140 ((-73.9011 40.70054), (-73.90123 40.70055), (…
 3        2 11562  1574     0.136 ((-73.98039 40.74564), (-73.98042 40.74559), …
 4       50 52509  7088     0.135 ((-74.0244 40.61755), (-74.0244 40.61755), (-…
 5       29 19971  2688     0.135 ((-73.84195 40.68533), (-73.84196 40.68608), …
 6       16 13490  1782     0.132 ((-73.91697 40.85753), (-73.91701 40.85555), …
 7       23 44949  5905     0.131 ((-73.77758 40.72296), (-73.77753 40.72298), …
 8       49 35113  4584     0.131 ((-74.13103 40.60389), (-74.13082 40.6039), (…
 9       11 27851  3626     0.130 ((-73.84051 40.90053), (-73.84063 40.90051), …
10       20 20717  2697     0.130 ((-73.8309 40.77231), (-73.83016 40.77279), (…
# ℹ 42 more rows
…
dead_by_district

Simple feature collection with 52 features and 4 fields
Geometry type: MULTIPOINT
Dimension:     XY
Bounding box:  xmin: -74.25499 ymin: 40.49668 xmax: -73.69808 ymax: 40.91419
Geodetic CRS:  WGS 84
# A tibble: 52 × 5
   CounDist total  dead frac_dead                                       geometry
      <int> <int> <int>     <dbl>                               <MULTIPOINT [°]>
 1       32 30292  4316     0.142 ((-73.87193 40.57096), (-73.87198 40.57101), …
 2       30 23013  3231     0.140 ((-73.9011 40.70054), (-73.90123 40.70055), (…
 3        2 11562  1574     0.136 ((-73.98039 40.74564), (-73.98042 40.74559), …
 4       50 52509  7088     0.135 ((-74.0244 40.61755), (-74.0244 40.61755), (-…
 5       29 19971  2688     0.135 ((-73.84195 40.68533), (-73.84196 40.68608), …
 6       16 13490  1782     0.132 ((-73.91697 40.85753), (-73.91701 40.85555), …
 7       23 44949  5905     0.131 ((-73.77758 40.72296), (-73.77753 40.72298), …
 8       49 35113  4584     0.131 ((-74.13103 40.60389), (-74.13082 40.6039), (…
 9       11 27851  3626     0.130 ((-73.84051 40.90053), (-73.84063 40.90051), …
10       20 20717  2697     0.130 ((-73.8309 40.77231), (-73.83016 40.77279), (…
# ℹ 42 more rows
…
