STA 9750 Mini-Project #04: Just the Fact(-Check)s, Ma’am! – STA 9750 Submission Material
…
  filter(str_detect(Period, "^M\\d{2}$")) |>

  mutate(date_string = paste(Year, Period)) |>

  mutate(date = ym(str_replace(date_string, "M", ""))) |>

  mutate(level = as.numeric(Value)) |>

  select(date, level) |>

  drop_na()

df

# A tibble: 559 × 2
   date       level
   <date>     <dbl>
 1 1979-01-01 87650
 2 1979-02-01 87889
 3 1979-03-01 88792
 4 1979-04-01 89313
 5 1979-05-01 90126
 6 1979-06-01 90971
 7 1979-07-01 89976
 8 1979-08-01 90072
 9 1979-09-01 90616
10 1979-10-01 91089
# ℹ 549 more rows
…
  df_clean
}

revision_list <- map(revision_indexes, \(i) clean_revision_table(tables[[i]]))

ces_revisions <- bind_rows(revision_list)

ces_revisions

# A tibble: 552 × 4
   date       original final revision
   <date>        <dbl> <dbl>    <dbl>
 1 2024-01-01      229  -124     -353
 2 2024-02-01      270    -5     -275
 3 2024-03-01      315    12     -303
 4 2024-04-01      165   -10     -175
 5 2024-05-01      218   -54     -272
 6 2024-06-01      179   -27     -206
 7 2024-07-01       89   -25     -114
 8 2024-08-01      159    17     -142
 9 2024-09-01      223   -31     -254
10 2024-10-01       36    24      -12
# ℹ 542 more rows
…
